<?xml version="1.0" encoding="UTF-8" standalone="no"?>
<!-- Created with Inkscape (http://www.inkscape.org/) -->

<svg
   xmlns:dc="http://purl.org/dc/elements/1.1/"
   xmlns:cc="http://creativecommons.org/ns#"
   xmlns:rdf="http://www.w3.org/1999/02/22-rdf-syntax-ns#"
   xmlns:svg="http://www.w3.org/2000/svg"
   xmlns="http://www.w3.org/2000/svg"
   xmlns:sodipodi="http://sodipodi.sourceforge.net/DTD/sodipodi-0.dtd"
   xmlns:inkscape="http://www.inkscape.org/namespaces/inkscape"
   width="141.23mm"
   height="146.39999mm"
   viewBox="0 0 141.23 146.39999"
   version="1.1"
   id="svg1759"
   inkscape:version="0.92.5 (2060ec1f9f, 2020-04-08)"
   sodipodi:docname="comment-flouter.svg">
  <defs
     id="defs1753">
    <clipPath
       id="presentation_clip_path"
       clipPathUnits="userSpaceOnUse">
      <rect
         x="0"
         y="0"
         width="21000"
         height="29700"
         id="rect2" />
    </clipPath>
    <clipPath
       clipPathUnits="userSpaceOnUse"
       id="clipPath1065">
      <rect
         style="opacity:0.8;fill:#fb0000;fill-opacity:1;stroke:none;stroke-width:0.50485754;stroke-linecap:round;stroke-linejoin:round;stroke-miterlimit:4;stroke-dasharray:0.50485762, 1.00971526;stroke-dashoffset:0;stroke-opacity:1;paint-order:normal"
         id="rect1067"
         width="142.92302"
         height="148.74457"
         x="33.447502"
         y="69.375717" />
    </clipPath>
  </defs>
  <sodipodi:namedview
     id="base"
     pagecolor="#ffffff"
     bordercolor="#666666"
     borderopacity="1.0"
     inkscape:pageopacity="0.0"
     inkscape:pageshadow="2"
     inkscape:zoom="1.979899"
     inkscape:cx="210.72165"
     inkscape:cy="331.44125"
     inkscape:document-units="mm"
     inkscape:current-layer="layer1"
     showgrid="false"
     inkscape:window-width="2488"
     inkscape:window-height="1376"
     inkscape:window-x="72"
     inkscape:window-y="27"
     inkscape:window-maximized="1"
     fit-margin-top="0"
     fit-margin-left="0"
     fit-margin-right="0"
     fit-margin-bottom="0" />
  <metadata
     id="metadata1756">
    <rdf:RDF>
      <cc:Work
         rdf:about="">
        <dc:format>image/svg+xml</dc:format>
        <dc:type
           rdf:resource="http://purl.org/dc/dcmitype/StillImage" />
        <dc:title />
      </cc:Work>
    </rdf:RDF>
  </metadata>
  <g
     inkscape:label="Calque 1"
     inkscape:groupmode="layer"
     id="layer1"
     transform="translate(-34.462377,-70.341663)">
    <g
       transform="matrix(0.01,0,0,0.01,0.08237714,-28.418337)"
       id="g170">
      <g
         id="id2"
         class="Master_Slide">
        <g
           id="bg-id2"
           class="Background" />
        <g
           id="bo-id2"
           class="BackgroundObjects" />
      </g>
    </g>
    <g
       id="g1306"
       clip-path="url(#clipPath1065)">
      <g
         id="g644"
         class="SlideGroup"
         transform="matrix(0.01,0,0,0.01,0.08237714,-28.418337)">
        <g
           id="g642">
          <g
             id="container-id1">
            <g
               clip-path="url(#presentation_clip_path)"
               class="Slide"
               id="id1">
              <g
                 id="g638"
                 class="Page">
                <g
                   id="g450"
                   class="com.sun.star.drawing.TableShape">
                  <g
                     id="g448">
                    <rect
                       id="rect172"
                       height="10020"
                       width="14102"
                       y="9887"
                       x="3449"
                       class="BoundingBox"
                       style="fill:none;stroke:none" />
                    <path
                       id="path174"
                       d="m 3451,9889 h 2819 v 2003 H 3451 Z"
                       inkscape:connector-curvature="0"
                       style="fill:#a5d6a7;stroke:none" />
                    <text
                       id="text182"
                       class="TextShape">
                      <tspan
                         id="tspan180"
                         font-weight="400"
                         font-size="635px"
                         class="TextParagraph"
                         style="font-weight:400;font-size:635px;font-family:'Liberation Sans', sans-serif">
                        <tspan
                           id="tspan178"
                           y="11111"
                           x="4509"
                           class="TextPosition">
                          <tspan
                             id="tspan176"
                             style="fill:#000000;stroke:none">52</tspan>
                        </tspan>
                      </tspan>
                    </text>
                    <path
                       id="path184"
                       d="m 6270,9889 h 2819 v 2003 H 6270 Z"
                       inkscape:connector-curvature="0"
                       style="fill:#a5d6a7;stroke:none" />
                    <text
                       id="text192"
                       class="TextShape">
                      <tspan
                         id="tspan190"
                         font-weight="400"
                         font-size="635px"
                         class="TextParagraph"
                         style="font-weight:400;font-size:635px;font-family:'Liberation Sans', sans-serif">
                        <tspan
                           id="tspan188"
                           y="11111"
                           x="7153"
                           class="TextPosition">
                          <tspan
                             id="tspan186"
                             style="fill:#000000;stroke:none">125</tspan>
                        </tspan>
                      </tspan>
                    </text>
                    <path
                       id="path194"
                       d="m 9089,9889 h 2819 v 2003 H 9089 Z"
                       inkscape:connector-curvature="0"
                       style="fill:#a5d6a7;stroke:none" />
                    <text
                       id="text202"
                       class="TextShape">
                      <tspan
                         id="tspan200"
                         font-weight="400"
                         font-size="635px"
                         class="TextParagraph"
                         style="font-weight:400;font-size:635px;font-family:'Liberation Sans', sans-serif">
                        <tspan
                           id="tspan198"
                           y="11111"
                           x="9972"
                           class="TextPosition">
                          <tspan
                             id="tspan196"
                             style="fill:#000000;stroke:none">250</tspan>
                        </tspan>
                      </tspan>
                    </text>
                    <path
                       id="path204"
                       d="m 11908,9889 h 2819 v 2003 h -2819 z"
                       inkscape:connector-curvature="0"
                       style="fill:#a5d6a7;stroke:none" />
                    <text
                       id="text212"
                       class="TextShape">
                      <tspan
                         id="tspan210"
                         font-weight="400"
                         font-size="635px"
                         class="TextParagraph"
                         style="font-weight:400;font-size:635px;font-family:'Liberation Sans', sans-serif">
                        <tspan
                           id="tspan208"
                           y="11111"
                           x="12791"
                           class="TextPosition">
                          <tspan
                             id="tspan206"
                             style="fill:#000000;stroke:none">255</tspan>
                        </tspan>
                      </tspan>
                    </text>
                    <path
                       id="path214"
                       d="m 14727,9889 h 2821 v 2003 h -2821 z"
                       inkscape:connector-curvature="0"
                       style="fill:#a5d6a7;stroke:none" />
                    <text
                       id="text222"
                       class="TextShape">
                      <tspan
                         id="tspan220"
                         font-weight="400"
                         font-size="635px"
                         class="TextParagraph"
                         style="font-weight:400;font-size:635px;font-family:'Liberation Sans', sans-serif">
                        <tspan
                           id="tspan218"
                           y="11111"
                           x="15962"
                           class="TextPosition">
                          <tspan
                             id="tspan216"
                             style="fill:#000000;stroke:none">0</tspan>
                        </tspan>
                      </tspan>
                    </text>
                    <path
                       id="path224"
                       d="m 3451,11892 h 2819 v 2003 H 3451 Z"
                       inkscape:connector-curvature="0"
                       style="fill:#a5d6a7;stroke:none" />
                    <text
                       id="text232"
                       class="TextShape">
                      <tspan
                         id="tspan230"
                         font-weight="400"
                         font-size="635px"
                         class="TextParagraph"
                         style="font-weight:400;font-size:635px;font-family:'Liberation Sans', sans-serif">
                        <tspan
                           id="tspan228"
                           y="13114"
                           x="4334"
                           class="TextPosition">
                          <tspan
                             id="tspan226"
                             style="fill:#000000;stroke:none">187</tspan>
                        </tspan>
                      </tspan>
                    </text>
                    <path
                       id="path234"
                       d="m 6270,11892 h 2819 v 2003 H 6270 Z"
                       inkscape:connector-curvature="0"
                       style="fill:#d1c4e9;stroke:none" />
                    <text
                       id="text242"
                       class="TextShape">
                      <tspan
                         id="tspan240"
                         font-weight="400"
                         font-size="635px"
                         class="TextParagraph"
                         style="font-weight:400;font-size:635px;font-family:'Liberation Sans', sans-serif">
                        <tspan
                           id="tspan238"
                           y="13114"
                           x="7328"
                           class="TextPosition">
                          <tspan
                             id="tspan236"
                             style="fill:#000000;stroke:none">45</tspan>
                        </tspan>
                      </tspan>
                    </text>
                    <path
                       id="path244"
                       d="m 9089,11892 h 2819 v 2003 H 9089 Z"
                       inkscape:connector-curvature="0"
                       style="fill:#d1c4e9;stroke:none" />
                    <text
                       id="text252"
                       class="TextShape">
                      <tspan
                         id="tspan250"
                         font-weight="400"
                         font-size="635px"
                         class="TextParagraph"
                         style="font-weight:400;font-size:635px;font-family:'Liberation Sans', sans-serif">
                        <tspan
                           id="tspan248"
                           y="13114"
                           x="10323"
                           class="TextPosition">
                          <tspan
                             id="tspan246"
                             style="fill:#000000;stroke:none">2</tspan>
                        </tspan>
                      </tspan>
                    </text>
                    <path
                       id="path254"
                       d="m 11908,11892 h 2819 v 2003 h -2819 z"
                       inkscape:connector-curvature="0"
                       style="fill:#d1c4e9;stroke:none" />
                    <text
                       id="text262"
                       class="TextShape">
                      <tspan
                         id="tspan260"
                         font-weight="400"
                         font-size="635px"
                         class="TextParagraph"
                         style="font-weight:400;font-size:635px;font-family:'Liberation Sans', sans-serif">
                        <tspan
                           id="tspan258"
                           y="13114"
                           x="12966"
                           class="TextPosition">
                          <tspan
                             id="tspan256"
                             style="fill:#000000;stroke:none">30</tspan>
                        </tspan>
                      </tspan>
                    </text>
                    <path
                       id="path264"
                       d="m 14727,11892 h 2821 v 2003 h -2821 z"
                       inkscape:connector-curvature="0"
                       style="fill:#a5d6a7;stroke:none" />
                    <text
                       id="text272"
                       class="TextShape">
                      <tspan
                         id="tspan270"
                         font-weight="400"
                         font-size="635px"
                         class="TextParagraph"
                         style="font-weight:400;font-size:635px;font-family:'Liberation Sans', sans-serif">
                        <tspan
                           id="tspan268"
                           y="13114"
                           x="15786"
                           class="TextPosition">
                          <tspan
                             id="tspan266"
                             style="fill:#000000;stroke:none">50</tspan>
                        </tspan>
                      </tspan>
                    </text>
                    <path
                       id="path274"
                       d="m 3451,13895 h 2819 v 2003 H 3451 Z"
                       inkscape:connector-curvature="0"
                       style="fill:#a5d6a7;stroke:none" />
                    <text
                       id="text282"
                       class="TextShape">
                      <tspan
                         id="tspan280"
                         font-weight="400"
                         font-size="635px"
                         class="TextParagraph"
                         style="font-weight:400;font-size:635px;font-family:'Liberation Sans', sans-serif">
                        <tspan
                           id="tspan278"
                           y="15117"
                           x="4334"
                           class="TextPosition">
                          <tspan
                             id="tspan276"
                             style="fill:#000000;stroke:none">101</tspan>
                        </tspan>
                      </tspan>
                    </text>
                    <path
                       id="path284"
                       d="m 6270,13895 h 2819 v 2003 H 6270 Z"
                       inkscape:connector-curvature="0"
                       style="fill:#d1c4e9;stroke:none" />
                    <text
                       id="text292"
                       class="TextShape">
                      <tspan
                         id="tspan290"
                         font-weight="400"
                         font-size="635px"
                         class="TextParagraph"
                         style="font-weight:400;font-size:635px;font-family:'Liberation Sans', sans-serif">
                        <tspan
                           id="tspan288"
                           y="15117"
                           x="7328"
                           class="TextPosition">
                          <tspan
                             id="tspan286"
                             style="fill:#000000;stroke:none">88</tspan>
                        </tspan>
                      </tspan>
                    </text>
                    <path
                       id="path294"
                       d="m 9089,13895 h 2819 v 2003 H 9089 Z"
                       inkscape:connector-curvature="0"
                       style="fill:#ffff00;stroke:none" />
                    <text
                       id="text302"
                       class="TextShape">
                      <tspan
                         id="tspan300"
                         font-weight="700"
                         font-size="635px"
                         class="TextParagraph"
                         style="font-weight:700;font-size:635px;font-family:'Liberation Sans', sans-serif">
                        <tspan
                           id="tspan298"
                           y="15117"
                           x="9989"
                           class="TextPosition">
                          <tspan
                             id="tspan296"
                             style="fill:#000000;stroke:none">112</tspan>
                        </tspan>
                      </tspan>
                    </text>
                    <path
                       id="path304"
                       d="m 11908,13895 h 2819 v 2003 h -2819 z"
                       inkscape:connector-curvature="0"
                       style="fill:#d1c4e9;stroke:none" />
                    <text
                       id="text312"
                       class="TextShape">
                      <tspan
                         id="tspan310"
                         font-weight="400"
                         font-size="635px"
                         class="TextParagraph"
                         style="font-weight:400;font-size:635px;font-family:'Liberation Sans', sans-serif">
                        <tspan
                           id="tspan308"
                           y="15117"
                           x="12966"
                           class="TextPosition">
                          <tspan
                             id="tspan306"
                             style="fill:#000000;stroke:none">52</tspan>
                        </tspan>
                      </tspan>
                    </text>
                    <path
                       id="path314"
                       d="m 14727,13895 h 2821 v 2003 h -2821 z"
                       inkscape:connector-curvature="0"
                       style="fill:#a5d6a7;stroke:none" />
                    <text
                       id="text322"
                       class="TextShape">
                      <tspan
                         id="tspan320"
                         font-weight="400"
                         font-size="635px"
                         class="TextParagraph"
                         style="font-weight:400;font-size:635px;font-family:'Liberation Sans', sans-serif">
                        <tspan
                           id="tspan318"
                           y="15117"
                           x="15611"
                           class="TextPosition">
                          <tspan
                             id="tspan316"
                             style="fill:#000000;stroke:none">120</tspan>
                        </tspan>
                      </tspan>
                    </text>
                    <path
                       id="path324"
                       d="m 3451,15898 h 2819 v 2003 H 3451 Z"
                       inkscape:connector-curvature="0"
                       style="fill:#a5d6a7;stroke:none" />
                    <text
                       id="text332"
                       class="TextShape">
                      <tspan
                         id="tspan330"
                         font-weight="400"
                         font-size="635px"
                         class="TextParagraph"
                         style="font-weight:400;font-size:635px;font-family:'Liberation Sans', sans-serif">
                        <tspan
                           id="tspan328"
                           y="17120"
                           x="4509"
                           class="TextPosition">
                          <tspan
                             id="tspan326"
                             style="fill:#000000;stroke:none">10</tspan>
                        </tspan>
                      </tspan>
                    </text>
                    <path
                       id="path334"
                       d="m 6270,15898 h 2819 v 2003 H 6270 Z"
                       inkscape:connector-curvature="0"
                       style="fill:#d1c4e9;stroke:none" />
                    <text
                       id="text342"
                       class="TextShape">
                      <tspan
                         id="tspan340"
                         font-weight="400"
                         font-size="635px"
                         class="TextParagraph"
                         style="font-weight:400;font-size:635px;font-family:'Liberation Sans', sans-serif">
                        <tspan
                           id="tspan338"
                           y="17120"
                           x="7328"
                           class="TextPosition">
                          <tspan
                             id="tspan336"
                             style="fill:#000000;stroke:none">40</tspan>
                        </tspan>
                      </tspan>
                    </text>
                    <path
                       id="path344"
                       d="m 9089,15898 h 2819 v 2003 H 9089 Z"
                       inkscape:connector-curvature="0"
                       style="fill:#d1c4e9;stroke:none" />
                    <text
                       id="text352"
                       class="TextShape">
                      <tspan
                         id="tspan350"
                         font-weight="400"
                         font-size="635px"
                         class="TextParagraph"
                         style="font-weight:400;font-size:635px;font-family:'Liberation Sans', sans-serif">
                        <tspan
                           id="tspan348"
                           y="17120"
                           x="9972"
                           class="TextPosition">
                          <tspan
                             id="tspan346"
                             style="fill:#000000;stroke:none">144</tspan>
                        </tspan>
                      </tspan>
                    </text>
                    <path
                       id="path354"
                       d="m 11908,15898 h 2819 v 2003 h -2819 z"
                       inkscape:connector-curvature="0"
                       style="fill:#d1c4e9;stroke:none" />
                    <text
                       id="text362"
                       class="TextShape">
                      <tspan
                         id="tspan360"
                         font-weight="400"
                         font-size="635px"
                         class="TextParagraph"
                         style="font-weight:400;font-size:635px;font-family:'Liberation Sans', sans-serif">
                        <tspan
                           id="tspan358"
                           y="17120"
                           x="12791"
                           class="TextPosition">
                          <tspan
                             id="tspan356"
                             style="fill:#000000;stroke:none">125</tspan>
                        </tspan>
                      </tspan>
                    </text>
                    <path
                       id="path364"
                       d="m 14727,15898 h 2821 v 2003 h -2821 z"
                       inkscape:connector-curvature="0"
                       style="fill:#a5d6a7;stroke:none" />
                    <text
                       id="text372"
                       class="TextShape">
                      <tspan
                         id="tspan370"
                         font-weight="400"
                         font-size="635px"
                         class="TextParagraph"
                         style="font-weight:400;font-size:635px;font-family:'Liberation Sans', sans-serif">
                        <tspan
                           id="tspan368"
                           y="17120"
                           x="15611"
                           class="TextPosition">
                          <tspan
                             id="tspan366"
                             style="fill:#000000;stroke:none">151</tspan>
                        </tspan>
                      </tspan>
                    </text>
                    <path
                       id="path374"
                       d="m 3451,17901 h 2819 v 2003 H 3451 Z"
                       inkscape:connector-curvature="0"
                       style="fill:#a5d6a7;stroke:none" />
                    <text
                       id="text382"
                       class="TextShape">
                      <tspan
                         id="tspan380"
                         font-weight="400"
                         font-size="635px"
                         class="TextParagraph"
                         style="font-weight:400;font-size:635px;font-family:'Liberation Sans', sans-serif">
                        <tspan
                           id="tspan378"
                           y="19123"
                           x="4334"
                           class="TextPosition">
                          <tspan
                             id="tspan376"
                             style="fill:#000000;stroke:none">125</tspan>
                        </tspan>
                      </tspan>
                    </text>
                    <path
                       id="path384"
                       d="m 6270,17901 h 2819 v 2003 H 6270 Z"
                       inkscape:connector-curvature="0"
                       style="fill:#a5d6a7;stroke:none" />
                    <text
                       id="text392"
                       class="TextShape">
                      <tspan
                         id="tspan390"
                         font-weight="400"
                         font-size="635px"
                         class="TextParagraph"
                         style="font-weight:400;font-size:635px;font-family:'Liberation Sans', sans-serif">
                        <tspan
                           id="tspan388"
                           y="19123"
                           x="7328"
                           class="TextPosition">
                          <tspan
                             id="tspan386"
                             style="fill:#000000;stroke:none">95</tspan>
                        </tspan>
                      </tspan>
                    </text>
                    <path
                       id="path394"
                       d="m 9089,17901 h 2819 v 2003 H 9089 Z"
                       inkscape:connector-curvature="0"
                       style="fill:#a5d6a7;stroke:none" />
                    <text
                       id="text402"
                       class="TextShape">
                      <tspan
                         id="tspan400"
                         font-weight="400"
                         font-size="635px"
                         class="TextParagraph"
                         style="font-weight:400;font-size:635px;font-family:'Liberation Sans', sans-serif">
                        <tspan
                           id="tspan398"
                           y="19123"
                           x="9972"
                           class="TextPosition">
                          <tspan
                             id="tspan396"
                             style="fill:#000000;stroke:none">145</tspan>
                        </tspan>
                      </tspan>
                    </text>
                    <path
                       id="path404"
                       d="m 11908,17901 h 2819 v 2003 h -2819 z"
                       inkscape:connector-curvature="0"
                       style="fill:#a5d6a7;stroke:none" />
                    <text
                       id="text412"
                       class="TextShape">
                      <tspan
                         id="tspan410"
                         font-weight="400"
                         font-size="635px"
                         class="TextParagraph"
                         style="font-weight:400;font-size:635px;font-family:'Liberation Sans', sans-serif">
                        <tspan
                           id="tspan408"
                           y="19123"
                           x="12966"
                           class="TextPosition">
                          <tspan
                             id="tspan406"
                             style="fill:#000000;stroke:none">97</tspan>
                        </tspan>
                      </tspan>
                    </text>
                    <path
                       id="path414"
                       d="m 14727,17901 h 2821 v 2003 h -2821 z"
                       inkscape:connector-curvature="0"
                       style="fill:#a5d6a7;stroke:none" />
                    <text
                       id="text422"
                       class="TextShape">
                      <tspan
                         id="tspan420"
                         font-weight="400"
                         font-size="635px"
                         class="TextParagraph"
                         style="font-weight:400;font-size:635px;font-family:'Liberation Sans', sans-serif">
                        <tspan
                           id="tspan418"
                           y="19123"
                           x="15611"
                           class="TextPosition">
                          <tspan
                             id="tspan416"
                             style="fill:#000000;stroke:none">123</tspan>
                        </tspan>
                      </tspan>
                    </text>
                    <path
                       id="path424"
                       d="M 3438,9889 H 17561"
                       inkscape:connector-curvature="0"
                       style="fill:none;stroke:#ffffff;stroke-width:26;stroke-linejoin:round" />
                    <path
                       id="path426"
                       d="M 3451,9876 V 19917"
                       inkscape:connector-curvature="0"
                       style="fill:none;stroke:#ffffff;stroke-width:26;stroke-linejoin:round" />
                    <path
                       id="path428"
                       d="M 6270,9876 V 19917"
                       inkscape:connector-curvature="0"
                       style="fill:none;stroke:#ffffff;stroke-width:26;stroke-linejoin:round" />
                    <path
                       id="path430"
                       d="M 9089,9876 V 19917"
                       inkscape:connector-curvature="0"
                       style="fill:none;stroke:#ffffff;stroke-width:26;stroke-linejoin:round" />
                    <path
                       id="path432"
                       d="M 11908,9876 V 19917"
                       inkscape:connector-curvature="0"
                       style="fill:none;stroke:#ffffff;stroke-width:26;stroke-linejoin:round" />
                    <path
                       id="path434"
                       d="M 14727,9876 V 19917"
                       inkscape:connector-curvature="0"
                       style="fill:none;stroke:#ffffff;stroke-width:26;stroke-linejoin:round" />
                    <path
                       id="path436"
                       d="M 17548,9876 V 19917"
                       inkscape:connector-curvature="0"
                       style="fill:none;stroke:#ffffff;stroke-width:26;stroke-linejoin:round" />
                    <path
                       id="path438"
                       d="M 3438,11892 H 17561"
                       inkscape:connector-curvature="0"
                       style="fill:none;stroke:#ffffff;stroke-width:26;stroke-linejoin:round" />
                    <path
                       id="path440"
                       d="M 3438,13895 H 17561"
                       inkscape:connector-curvature="0"
                       style="fill:none;stroke:#ffffff;stroke-width:26;stroke-linejoin:round" />
                    <path
                       id="path442"
                       d="M 3438,15898 H 17561"
                       inkscape:connector-curvature="0"
                       style="fill:none;stroke:#ffffff;stroke-width:26;stroke-linejoin:round" />
                    <path
                       id="path444"
                       d="M 3438,17901 H 17561"
                       inkscape:connector-curvature="0"
                       style="fill:none;stroke:#ffffff;stroke-width:26;stroke-linejoin:round" />
                    <path
                       id="path446"
                       d="M 3438,19904 H 17561"
                       inkscape:connector-curvature="0"
                       style="fill:none;stroke:#ffffff;stroke-width:26;stroke-linejoin:round" />
                  </g>
                </g>
                <g
                   id="g459"
                   class="com.sun.star.drawing.LineShape">
                  <g
                     id="id3">
                    <rect
                       id="rect452"
                       height="4278"
                       width="3278"
                       y="17250"
                       x="6723"
                       class="BoundingBox"
                       style="fill:none;stroke:none" />
                    <path
                       id="path454"
                       d="M 6750,21500 9785,17531"
                       inkscape:connector-curvature="0"
                       style="fill:none;stroke:#4a148c;stroke-width:53;stroke-linejoin:round" />
                    <path
                       id="path456"
                       d="m 9619,17436 381,-186 -80,416 z"
                       inkscape:connector-curvature="0"
                       style="fill:#4a148c;stroke:none" />
                  </g>
                </g>
                <g
                   id="g480"
                   class="com.sun.star.drawing.CustomShape">
                  <g
                     id="id4">
                    <rect
                       id="rect461"
                       height="3030"
                       width="5531"
                       y="21486"
                       x="3735"
                       class="BoundingBox"
                       style="fill:none;stroke:none" />
                    <path
                       id="path463"
                       d="m 4088,21500 v 0 c -59,0 -118,16 -169,45 -51,30 -94,73 -124,124 -29,51 -45,110 -45,169 v 2325 0 c 0,59 16,118 45,169 30,51 73,94 124,124 51,29 110,45 169,45 h 4825 v 0 c 59,0 118,-16 169,-45 51,-30 94,-73 124,-124 29,-51 45,-110 45,-169 v -2325 0 0 c 0,-59 -16,-118 -45,-169 -30,-51 -73,-94 -124,-124 -51,-29 -110,-45 -169,-45 z"
                       inkscape:connector-curvature="0"
                       style="fill:#d1c4e9;stroke:none" />
                    <path
                       id="path465"
                       d="m 4088,21500 v 0 c -59,0 -118,16 -169,45 -51,30 -94,73 -124,124 -29,51 -45,110 -45,169 v 2325 0 c 0,59 16,118 45,169 30,51 73,94 124,124 51,29 110,45 169,45 h 4825 v 0 c 59,0 118,-16 169,-45 51,-30 94,-73 124,-124 29,-51 45,-110 45,-169 v -2325 0 0 c 0,-59 -16,-118 -45,-169 -30,-51 -73,-94 -124,-124 -51,-29 -110,-45 -169,-45 z"
                       inkscape:connector-curvature="0"
                       style="fill:none;stroke:#4a148c;stroke-width:28;stroke-linejoin:round" />
                    <text
                       id="text477"
                       class="TextShape">
                      <tspan
                         id="tspan475"
                         font-weight="400"
                         font-size="634px"
                         class="TextParagraph"
                         style="font-weight:400;font-size:634px;font-family:'Liberation Sans', sans-serif">
                        <tspan
                           id="tspan469"
                           y="22154"
                           x="4599"
                           class="TextPosition">
                          <tspan
                             id="tspan467"
                             style="fill:#4a148c;stroke:none">Voisinage à 1</tspan>
                        </tspan>
                        <tspan
                           id="tspan473"
                           y="22865"
                           x="4142"
                           class="TextPosition">
                          <tspan
                             id="tspan471"
                             style="fill:#4a148c;stroke:none">pixel de distance</tspan>
                        </tspan>
                      </tspan>
                    </text>
                  </g>
                </g>
                <g
                   id="g489"
                   class="com.sun.star.drawing.LineShape">
                  <g
                     id="id5">
                    <rect
                       id="rect482"
                       height="2278"
                       width="631"
                       y="19250"
                       x="13473"
                       class="BoundingBox"
                       style="fill:none;stroke:none" />
                    <path
                       id="path484"
                       d="m 13500,21500 423,-1905"
                       inkscape:connector-curvature="0"
                       style="fill:none;stroke:#004d40;stroke-width:53;stroke-linejoin:round" />
                    <path
                       id="path486"
                       d="m 13733,19579 267,-329 103,411 z"
                       inkscape:connector-curvature="0"
                       style="fill:#004d40;stroke:none" />
                  </g>
                </g>
                <g
                   id="g510"
                   class="com.sun.star.drawing.CustomShape">
                  <g
                     id="id6">
                    <rect
                       id="rect491"
                       height="3030"
                       width="5531"
                       y="21485"
                       x="10735"
                       class="BoundingBox"
                       style="fill:none;stroke:none" />
                    <path
                       id="path493"
                       d="m 11038,21500 v 0 c -51,0 -100,13 -144,39 -44,25 -80,61 -105,105 -26,44 -39,93 -39,144 v 2424 0 c 0,51 13,100 39,144 25,44 61,80 105,105 44,26 93,39 144,39 h 4925 v 0 c 51,0 100,-13 144,-39 44,-25 80,-61 105,-105 26,-44 39,-93 39,-144 v -2424 0 0 c 0,-51 -13,-100 -39,-144 -25,-44 -61,-80 -105,-105 -44,-26 -93,-39 -144,-39 z"
                       inkscape:connector-curvature="0"
                       style="fill:#a5d6a7;stroke:none" />
                    <path
                       id="path495"
                       d="m 11038,21500 v 0 c -51,0 -100,13 -144,39 -44,25 -80,61 -105,105 -26,44 -39,93 -39,144 v 2424 0 c 0,51 13,100 39,144 25,44 61,80 105,105 44,26 93,39 144,39 h 4925 v 0 c 51,0 100,-13 144,-39 44,-25 80,-61 105,-105 26,-44 39,-93 39,-144 v -2424 0 0 c 0,-51 -13,-100 -39,-144 -25,-44 -61,-80 -105,-105 -44,-26 -93,-39 -144,-39 z"
                       inkscape:connector-curvature="0"
                       style="fill:none;stroke:#004d40;stroke-width:28;stroke-linejoin:round" />
                    <text
                       id="text507"
                       class="TextShape">
                      <tspan
                         id="tspan505"
                         font-weight="400"
                         font-size="634px"
                         class="TextParagraph"
                         style="font-weight:400;font-size:634px;font-family:'Liberation Sans', sans-serif">
                        <tspan
                           id="tspan499"
                           y="22154"
                           x="11599"
                           class="TextPosition">
                          <tspan
                             id="tspan497"
                             style="fill:#004d40;stroke:none">Voisinage à 2</tspan>
                        </tspan>
                        <tspan
                           id="tspan503"
                           y="22865"
                           x="10983"
                           class="TextPosition">
                          <tspan
                             id="tspan501"
                             style="fill:#004d40;stroke:none">pixels de distance</tspan>
                        </tspan>
                      </tspan>
                    </text>
                  </g>
                </g>
                <g
                   id="g533"
                   class="com.sun.star.drawing.CustomShape">
                  <g
                     id="id7">
                    <rect
                       id="rect512"
                       height="1191"
                       width="5253"
                       y="23174"
                       x="10874"
                       class="BoundingBox"
                       style="fill:none;stroke:none" />
                    <path
                       id="path514"
                       d="m 11072,23175 h 1 c -35,0 -69,9 -99,27 -30,17 -55,42 -72,72 -18,30 -27,64 -27,99 v 792 0 c 0,35 9,69 27,99 17,30 42,55 72,72 30,18 64,27 99,27 h 4853 1 c 35,0 69,-9 99,-27 30,-17 55,-42 72,-72 18,-30 27,-64 27,-99 l -1,-792 h 1 v 0 c 0,-35 -9,-69 -27,-99 -17,-30 -42,-55 -72,-72 -30,-18 -64,-27 -99,-27 z"
                       inkscape:connector-curvature="0"
                       style="fill:#d1c4e9;stroke:none" />
                    <path
                       id="path516"
                       d="m 11072,23175 h 1 c -35,0 -69,9 -99,27 -30,17 -55,42 -72,72 -18,30 -27,64 -27,99 v 792 0 c 0,35 9,69 27,99 17,30 42,55 72,72 30,18 64,27 99,27 h 4853 1 c 35,0 69,-9 99,-27 30,-17 55,-42 72,-72 18,-30 27,-64 27,-99 l -1,-792 h 1 v 0 c 0,-35 -9,-69 -27,-99 -17,-30 -42,-55 -72,-72 -30,-18 -64,-27 -99,-27 z"
                       inkscape:connector-curvature="0"
                       style="fill:none;stroke:#4a148c" />
                    <text
                       id="text530"
                       class="TextShape">
                      <tspan
                         id="tspan522"
                         font-weight="400"
                         font-style="italic"
                         font-size="423px"
                         class="TextParagraph"
                         style="font-style:italic;font-weight:400;font-size:423px;font-family:'Liberation Sans', sans-serif">
                        <tspan
                           id="tspan520"
                           y="23680"
                           x="11601"
                           class="TextPosition">
                          <tspan
                             id="tspan518"
                             style="fill:#4a148c;stroke:none">(il inclut le voisinage</tspan>
                        </tspan>
                      </tspan>
                      <tspan
                         id="tspan528"
                         font-weight="400"
                         font-style="italic"
                         font-size="423px"
                         class="TextParagraph"
                         style="font-style:italic;font-weight:400;font-size:423px;font-family:'Liberation Sans', sans-serif">
                        <tspan
                           id="tspan526"
                           y="24154"
                           x="11432"
                           class="TextPosition">
                          <tspan
                             id="tspan524"
                             style="fill:#4a148c;stroke:none">à 1 pixel de distance!)</tspan>
                        </tspan>
                      </tspan>
                    </text>
                  </g>
                </g>
                <g
                   id="g550"
                   class="com.sun.star.drawing.CustomShape">
                  <g
                     id="id8">
                    <rect
                       id="rect535"
                       height="1191"
                       width="5253"
                       y="23174"
                       x="3874"
                       class="BoundingBox"
                       style="fill:none;stroke:none" />
                    <path
                       id="path537"
                       d="m 4072,23175 h 1 c -35,0 -69,9 -99,27 -30,17 -55,42 -72,72 -18,30 -27,64 -27,99 v 792 0 c 0,35 9,69 27,99 17,30 42,55 72,72 30,18 64,27 99,27 h 4853 1 c 35,0 69,-9 99,-27 30,-17 55,-42 72,-72 18,-30 27,-64 27,-99 l -1,-792 h 1 v 0 c 0,-35 -9,-69 -27,-99 -17,-30 -42,-55 -72,-72 -30,-18 -64,-27 -99,-27 z"
                       inkscape:connector-curvature="0"
                       style="fill:#ffff00;stroke:none" />
                    <path
                       id="path539"
                       d="m 4072,23175 h 1 c -35,0 -69,9 -99,27 -30,17 -55,42 -72,72 -18,30 -27,64 -27,99 v 792 0 c 0,35 9,69 27,99 17,30 42,55 72,72 30,18 64,27 99,27 h 4853 1 c 35,0 69,-9 99,-27 30,-17 55,-42 72,-72 18,-30 27,-64 27,-99 l -1,-792 h 1 v 0 c 0,-35 -9,-69 -27,-99 -17,-30 -42,-55 -72,-72 -30,-18 -64,-27 -99,-27 z"
                       inkscape:connector-curvature="0"
                       style="fill:none;stroke:#4a148c" />
                    <text
                       id="text547"
                       class="TextShape">
                      <tspan
                         id="tspan545"
                         font-weight="400"
                         font-style="italic"
                         font-size="423px"
                         class="TextParagraph"
                         style="font-style:italic;font-weight:400;font-size:423px;font-family:'Liberation Sans', sans-serif">
                        <tspan
                           id="tspan543"
                           y="23917"
                           x="4177"
                           class="TextPosition">
                          <tspan
                             id="tspan541"
                             style="fill:#000000;stroke:none">(il inclut le pixel central !)</tspan>
                        </tspan>
                      </tspan>
                    </text>
                  </g>
                </g>
                <g
                   id="g582"
                   class="Group">
                  <g
                     id="g559"
                     class="com.sun.star.drawing.CustomShape">
                    <g
                       id="id9">
                      <rect
                         id="rect552"
                         height="572"
                         width="1953"
                         y="14622"
                         x="8026"
                         class="BoundingBox"
                         style="fill:none;stroke:none" />
                      <path
                         id="path554"
                         d="m 8040,14907 269,-271 v 137 h 1384 v -137 l 270,271 -270,272 v -138 H 8309 v 138 z"
                         inkscape:connector-curvature="0"
                         style="fill:#ff4d42;stroke:none" />
                      <path
                         id="path556"
                         d="m 8040,14907 269,-271 v 137 h 1384 v -137 l 270,271 -270,272 v -138 H 8309 v 138 z"
                         inkscape:connector-curvature="0"
                         style="fill:none;stroke:#c9211e;stroke-width:28;stroke-linejoin:round" />
                    </g>
                  </g>
                  <g
                     id="g580"
                     class="com.sun.star.drawing.TextShape">
                    <g
                       id="id10">
                      <rect
                         id="rect561"
                         height="1792"
                         width="1703"
                         y="14270"
                         x="8150"
                         class="BoundingBox"
                         style="fill:none;stroke:none" />
                      <text
                         id="text577"
                         class="TextShape">
                        <tspan
                           id="tspan575"
                           font-weight="400"
                           font-style="italic"
                           font-size="353px"
                           class="TextParagraph"
                           style="font-style:italic;font-weight:400;font-size:353px;font-family:'Liberation Sans', sans-serif">
                          <tspan
                             id="tspan565"
                             y="14669"
                             x="8572"
                             class="TextPosition">
                            <tspan
                               id="tspan563"
                               style="fill:#000000;stroke:none">1 pixel</tspan>
                          </tspan>
                          <tspan
                             id="tspan569"
                             y="15019"
                             x="8836"
                             class="TextPosition">
                            <tspan
                               id="tspan567"
                               style="fill:#000000;stroke:none">de</tspan>
                          </tspan>
                          <tspan
                             id="tspan573"
                             y="15369"
                             x="8449"
                             class="TextPosition">
                            <tspan
                               id="tspan571"
                               style="fill:#000000;stroke:none">distance</tspan>
                          </tspan>
                        </tspan>
                      </text>
                    </g>
                  </g>
                </g>
                <g
                   id="g591"
                   class="com.sun.star.drawing.CustomShape">
                  <g
                     id="id11">
                    <rect
                       id="rect584"
                       height="1281"
                       width="530"
                       y="13234"
                       x="10236"
                       class="BoundingBox"
                       style="fill:none;stroke:none" />
                    <path
                       id="path586"
                       d="m 10500,14500 -250,-244 h 135 v -762 h -135 l 250,-245 251,245 h -135 v 762 h 135 z"
                       inkscape:connector-curvature="0"
                       style="fill:#ff4d42;stroke:none" />
                    <path
                       id="path588"
                       d="m 10500,14500 -250,-244 h 135 v -762 h -135 l 250,-245 251,245 h -135 v 762 h 135 z"
                       inkscape:connector-curvature="0"
                       style="fill:none;stroke:#c9211e;stroke-width:28;stroke-linejoin:round" />
                  </g>
                </g>
                <g
                   id="g623"
                   class="Group">
                  <g
                     id="g600"
                     class="com.sun.star.drawing.CustomShape">
                    <g
                       id="id12">
                      <rect
                         id="rect593"
                         height="531"
                         width="5531"
                         y="13609"
                         x="10735"
                         class="BoundingBox"
                         style="fill:none;stroke:none" />
                      <path
                         id="path595"
                         d="m 10750,13874 771,-250 v 127 h 3958 v -127 l 772,250 -772,251 v -127 h -3958 v 127 z"
                         inkscape:connector-curvature="0"
                         style="fill:#ff9100;stroke:none" />
                      <path
                         id="path597"
                         d="m 10750,13874 771,-250 v 127 h 3958 v -127 l 772,250 -772,251 v -127 h -3958 v 127 z"
                         inkscape:connector-curvature="0"
                         style="fill:none;stroke:#e65100;stroke-width:28;stroke-linejoin:round" />
                    </g>
                  </g>
                  <g
                     id="g621"
                     class="com.sun.star.drawing.TextShape">
                    <g
                       id="id13">
                      <rect
                         id="rect602"
                         height="1302"
                         width="2501"
                         y="13250"
                         x="12250"
                         class="BoundingBox"
                         style="fill:none;stroke:none" />
                      <text
                         id="text618"
                         class="TextShape">
                        <tspan
                           id="tspan616"
                           font-weight="400"
                           font-style="italic"
                           font-size="353px"
                           class="TextParagraph"
                           style="font-style:italic;font-weight:400;font-size:353px;font-family:'Liberation Sans', sans-serif">
                          <tspan
                             id="tspan606"
                             y="13649"
                             x="12996"
                             class="TextPosition">
                            <tspan
                               id="tspan604"
                               style="fill:#000000;stroke:none">2 pixels</tspan>
                          </tspan>
                          <tspan
                             id="tspan610"
                             y="13999"
                             x="13335"
                             class="TextPosition">
                            <tspan
                               id="tspan608"
                               style="fill:#000000;stroke:none">de</tspan>
                          </tspan>
                          <tspan
                             id="tspan614"
                             y="14349"
                             x="12948"
                             class="TextPosition">
                            <tspan
                               id="tspan612"
                               style="fill:#000000;stroke:none">distance</tspan>
                          </tspan>
                        </tspan>
                      </text>
                    </g>
                  </g>
                </g>
                <g
                   id="g636"
                   class="Group">
                  <g
                     id="g634"
                     class="Group">
                    <g
                       id="g632"
                       class="com.sun.star.drawing.CustomShape">
                      <g
                         id="id14">
                        <rect
                           id="rect625"
                           height="3506"
                           width="596"
                           y="15185"
                           x="11203"
                           class="BoundingBox"
                           style="fill:none;stroke:none" />
                        <path
                           id="path627"
                           d="m 11500,18676 -283,-487 h 143 v -2502 h -143 l 283,-487 284,487 h -144 v 2502 h 144 z"
                           inkscape:connector-curvature="0"
                           style="fill:#ff9100;stroke:none" />
                        <path
                           id="path629"
                           d="m 11500,18676 -283,-487 h 143 v -2502 h -143 l 283,-487 284,487 h -144 v 2502 h 144 z"
                           inkscape:connector-curvature="0"
                           style="fill:none;stroke:#e65100;stroke-width:28;stroke-linejoin:round" />
                      </g>
                    </g>
                  </g>
                </g>
              </g>
            </g>
          </g>
        </g>
      </g>
    </g>
    <text
       xml:space="preserve"
       style="font-style:normal;font-weight:normal;font-size:10.58333302px;line-height:1.25;font-family:sans-serif;letter-spacing:0px;word-spacing:0px;fill:#000000;fill-opacity:1;stroke:none;stroke-width:0.26458332"
       x="91.281647"
       y="129.26707"
       id="text1067"><tspan
         sodipodi:role="line"
         id="tspan1065"
         x="91.281647"
         y="129.26707"
         style="font-style:italic;font-variant:normal;font-weight:bold;font-stretch:normal;font-size:3.88055563px;font-family:sans-serif;-inkscape-font-specification:'sans-serif, Bold Italic';font-variant-ligatures:normal;font-variant-caps:normal;font-variant-numeric:normal;font-feature-settings:normal;text-align:start;writing-mode:lr-tb;text-anchor:start;fill:#0000d7;fill-opacity:1;stroke-width:0.26458332">(i, j)</tspan></text>
    <text
       xml:space="preserve"
       style="font-style:normal;font-weight:normal;font-size:10.58333302px;line-height:1.25;font-family:sans-serif;letter-spacing:0px;word-spacing:0px;fill:#000000;fill-opacity:1;stroke:none;stroke-width:0.26458332"
       x="147.78546"
       y="149.18103"
       id="text1067-9-7-8"><tspan
         sodipodi:role="line"
         id="tspan1065-4-0-1"
         x="147.78546"
         y="149.18103"
         style="font-style:italic;font-variant:normal;font-weight:bold;font-stretch:normal;font-size:3.88055563px;font-family:sans-serif;-inkscape-font-specification:'sans-serif, Bold Italic';font-variant-ligatures:normal;font-variant-caps:normal;font-variant-numeric:normal;font-feature-settings:normal;text-align:start;writing-mode:lr-tb;text-anchor:start;fill:#0000d7;fill-opacity:1;stroke-width:0.26458332">(i+2, j+1)</tspan></text>
    <text
       xml:space="preserve"
       style="font-style:normal;font-weight:normal;font-size:10.58333302px;line-height:1.25;font-family:sans-serif;letter-spacing:0px;word-spacing:0px;fill:#000000;fill-opacity:1;stroke:none;stroke-width:0.26458332"
       x="147.78546"
       y="169.26811"
       id="text1067-9-7-8-9"><tspan
         sodipodi:role="line"
         id="tspan1065-4-0-1-9"
         x="147.78546"
         y="169.26811"
         style="font-style:italic;font-variant:normal;font-weight:bold;font-stretch:normal;font-size:3.88055563px;font-family:sans-serif;-inkscape-font-specification:'sans-serif, Bold Italic';font-variant-ligatures:normal;font-variant-caps:normal;font-variant-numeric:normal;font-feature-settings:normal;text-align:start;writing-mode:lr-tb;text-anchor:start;fill:#0000d7;fill-opacity:1;stroke-width:0.26458332">(i+2, j+2)</tspan></text>
    <text
       xml:space="preserve"
       style="font-style:normal;font-weight:normal;font-size:10.58333302px;line-height:1.25;font-family:sans-serif;letter-spacing:0px;word-spacing:0px;fill:#000000;fill-opacity:1;stroke:none;stroke-width:0.26458332"
       x="147.78546"
       y="89.168358"
       id="text1067-9-7-8-9-7"><tspan
         sodipodi:role="line"
         id="tspan1065-4-0-1-9-8"
         x="147.78546"
         y="89.168358"
         style="font-style:italic;font-variant:normal;font-weight:bold;font-stretch:normal;font-size:3.88055563px;font-family:sans-serif;-inkscape-font-specification:'sans-serif, Bold Italic';font-variant-ligatures:normal;font-variant-caps:normal;font-variant-numeric:normal;font-feature-settings:normal;text-align:start;writing-mode:lr-tb;text-anchor:start;fill:#0000d7;fill-opacity:1;stroke-width:0.26458332">(i+2, j-2)</tspan></text>
    <text
       xml:space="preserve"
       style="font-style:normal;font-weight:normal;font-size:10.58333302px;line-height:1.25;font-family:sans-serif;letter-spacing:0px;word-spacing:0px;fill:#000000;fill-opacity:1;stroke:none;stroke-width:0.26458332"
       x="91.281876"
       y="169.26811"
       id="text1067-9-7-9"><tspan
         sodipodi:role="line"
         id="tspan1065-4-0-0"
         x="91.281876"
         y="169.26811"
         style="font-style:italic;font-variant:normal;font-weight:bold;font-stretch:normal;font-size:3.88055563px;font-family:sans-serif;-inkscape-font-specification:'sans-serif, Bold Italic';font-variant-ligatures:normal;font-variant-caps:normal;font-variant-numeric:normal;font-feature-settings:normal;text-align:start;writing-mode:lr-tb;text-anchor:start;fill:#0000d7;fill-opacity:1;stroke-width:0.26458332">(i, j+2)</tspan></text>
    <text
       xml:space="preserve"
       style="font-style:normal;font-weight:normal;font-size:10.58333302px;line-height:1.25;font-family:sans-serif;letter-spacing:0px;word-spacing:0px;fill:#000000;fill-opacity:1;stroke:none;stroke-width:0.26458332"
       x="91.291145"
       y="89.168358"
       id="text1067-9-7-9-6"><tspan
         sodipodi:role="line"
         id="tspan1065-4-0-0-7"
         x="91.291145"
         y="89.168358"
         style="font-style:italic;font-variant:normal;font-weight:bold;font-stretch:normal;font-size:3.88055563px;font-family:sans-serif;-inkscape-font-specification:'sans-serif, Bold Italic';font-variant-ligatures:normal;font-variant-caps:normal;font-variant-numeric:normal;font-feature-settings:normal;text-align:start;writing-mode:lr-tb;text-anchor:start;fill:#0000d7;fill-opacity:1;stroke-width:0.26458332">(i, j-2)</tspan></text>
    <g
       id="g1259">
      <text
         id="text1067-9"
         y="129.26707"
         x="119.73544"
         style="font-style:normal;font-weight:normal;font-size:10.58333302px;line-height:1.25;font-family:sans-serif;letter-spacing:0px;word-spacing:0px;fill:#000000;fill-opacity:1;stroke:none;stroke-width:0.26458332"
         xml:space="preserve"><tspan
           style="font-style:italic;font-variant:normal;font-weight:bold;font-stretch:normal;font-size:3.88055563px;font-family:sans-serif;-inkscape-font-specification:'sans-serif, Bold Italic';font-variant-ligatures:normal;font-variant-caps:normal;font-variant-numeric:normal;font-feature-settings:normal;text-align:start;writing-mode:lr-tb;text-anchor:start;fill:#0000d7;fill-opacity:1;stroke-width:0.26458332"
           y="129.26707"
           x="119.73544"
           id="tspan1065-4"
           sodipodi:role="line">(i+1, j)</tspan></text>
      <text
         id="text1067-9-7"
         y="149.19438"
         x="119.73544"
         style="font-style:normal;font-weight:normal;font-size:10.58333302px;line-height:1.25;font-family:sans-serif;letter-spacing:0px;word-spacing:0px;fill:#000000;fill-opacity:1;stroke:none;stroke-width:0.26458332"
         xml:space="preserve"><tspan
           style="font-style:italic;font-variant:normal;font-weight:bold;font-stretch:normal;font-size:3.88055563px;font-family:sans-serif;-inkscape-font-specification:'sans-serif, Bold Italic';font-variant-ligatures:normal;font-variant-caps:normal;font-variant-numeric:normal;font-feature-settings:normal;text-align:start;writing-mode:lr-tb;text-anchor:start;fill:#0000d7;fill-opacity:1;stroke-width:0.26458332"
           y="149.19438"
           x="119.73544"
           id="tspan1065-4-0"
           sodipodi:role="line">(i+1, j+1)</tspan></text>
      <text
         id="text1067-9-7-8-9-7-7"
         y="89.169884"
         x="119.73544"
         style="font-style:normal;font-weight:normal;font-size:10.58333302px;line-height:1.25;font-family:sans-serif;letter-spacing:0px;word-spacing:0px;fill:#000000;fill-opacity:1;stroke:none;stroke-width:0.26458332"
         xml:space="preserve"><tspan
           style="font-style:italic;font-variant:normal;font-weight:bold;font-stretch:normal;font-size:3.88055563px;font-family:sans-serif;-inkscape-font-specification:'sans-serif, Bold Italic';font-variant-ligatures:normal;font-variant-caps:normal;font-variant-numeric:normal;font-feature-settings:normal;text-align:start;writing-mode:lr-tb;text-anchor:start;fill:#0000d7;fill-opacity:1;stroke-width:0.26458332"
           y="89.169884"
           x="119.73544"
           id="tspan1065-4-0-1-9-8-4"
           sodipodi:role="line">(i+1, j-2)</tspan></text>
    </g>
    <text
       xml:space="preserve"
       style="font-style:normal;font-weight:normal;font-size:10.58333302px;line-height:1.25;font-family:sans-serif;letter-spacing:0px;word-spacing:0px;fill:#000000;fill-opacity:1;stroke:none;stroke-width:0.26458332"
       x="147.78546"
       y="129.26793"
       id="text1067-9-0"><tspan
         sodipodi:role="line"
         id="tspan1065-4-6"
         x="147.78546"
         y="129.26793"
         style="font-style:italic;font-variant:normal;font-weight:bold;font-stretch:normal;font-size:3.88055563px;font-family:sans-serif;-inkscape-font-specification:'sans-serif, Bold Italic';font-variant-ligatures:normal;font-variant-caps:normal;font-variant-numeric:normal;font-feature-settings:normal;text-align:start;writing-mode:lr-tb;text-anchor:start;fill:#0000d7;fill-opacity:1;stroke-width:0.26458332">(i+2, j)</tspan></text>
    <text
       xml:space="preserve"
       style="font-style:normal;font-weight:normal;font-size:10.58333302px;line-height:1.25;font-family:sans-serif;letter-spacing:0px;word-spacing:0px;fill:#000000;fill-opacity:1;stroke:none;stroke-width:0.26458332"
       x="63.114788"
       y="129.26378"
       id="text1067-9-4"><tspan
         sodipodi:role="line"
         id="tspan1065-4-8"
         x="63.114788"
         y="129.26378"
         style="font-style:italic;font-variant:normal;font-weight:bold;font-stretch:normal;font-size:3.88055563px;font-family:sans-serif;-inkscape-font-specification:'sans-serif, Bold Italic';font-variant-ligatures:normal;font-variant-caps:normal;font-variant-numeric:normal;font-feature-settings:normal;text-align:start;writing-mode:lr-tb;text-anchor:start;fill:#0000d7;fill-opacity:1;stroke-width:0.26458332">(i-1, j)</tspan></text>
    <text
       xml:space="preserve"
       style="font-style:normal;font-weight:normal;font-size:10.58333302px;line-height:1.25;font-family:sans-serif;letter-spacing:0px;word-spacing:0px;fill:#000000;fill-opacity:1;stroke:none;stroke-width:0.26458332"
       x="63.114788"
       y="149.19109"
       id="text1067-9-7-5"><tspan
         sodipodi:role="line"
         id="tspan1065-4-0-8"
         x="63.114788"
         y="149.19109"
         style="font-style:italic;font-variant:normal;font-weight:bold;font-stretch:normal;font-size:3.88055563px;font-family:sans-serif;-inkscape-font-specification:'sans-serif, Bold Italic';font-variant-ligatures:normal;font-variant-caps:normal;font-variant-numeric:normal;font-feature-settings:normal;text-align:start;writing-mode:lr-tb;text-anchor:start;fill:#0000d7;fill-opacity:1;stroke-width:0.26458332">(i-1, j+1)</tspan></text>
    <text
       xml:space="preserve"
       style="font-style:normal;font-weight:normal;font-size:10.58333302px;line-height:1.25;font-family:sans-serif;letter-spacing:0px;word-spacing:0px;fill:#000000;fill-opacity:1;stroke:none;stroke-width:0.26458332"
       x="63.114788"
       y="89.16658"
       id="text1067-9-7-8-9-7-7-2"><tspan
         sodipodi:role="line"
         id="tspan1065-4-0-1-9-8-4-6"
         x="63.114788"
         y="89.16658"
         style="font-style:italic;font-variant:normal;font-weight:bold;font-stretch:normal;font-size:3.88055563px;font-family:sans-serif;-inkscape-font-specification:'sans-serif, Bold Italic';font-variant-ligatures:normal;font-variant-caps:normal;font-variant-numeric:normal;font-feature-settings:normal;text-align:start;writing-mode:lr-tb;text-anchor:start;fill:#0000d7;fill-opacity:1;stroke-width:0.26458332">(i-1, j-2)</tspan></text>
    <text
       xml:space="preserve"
       style="font-style:normal;font-weight:normal;font-size:10.58333302px;line-height:1.25;font-family:sans-serif;letter-spacing:0px;word-spacing:0px;fill:#000000;fill-opacity:1;stroke:none;stroke-width:0.26458332"
       x="63.114788"
       y="109.10267"
       id="text1067-9-7-9-0-6"><tspan
         sodipodi:role="line"
         id="tspan1065-4-0-0-6-0"
         x="63.114788"
         y="109.10267"
         style="font-style:italic;font-variant:normal;font-weight:bold;font-stretch:normal;font-size:3.88055563px;font-family:sans-serif;-inkscape-font-specification:'sans-serif, Bold Italic';font-variant-ligatures:normal;font-variant-caps:normal;font-variant-numeric:normal;font-feature-settings:normal;text-align:start;writing-mode:lr-tb;text-anchor:start;fill:#0000d7;fill-opacity:1;stroke-width:0.26458332">(i-1, j-1)</tspan></text>
    <text
       xml:space="preserve"
       style="font-style:normal;font-weight:normal;font-size:10.58333302px;line-height:1.25;font-family:sans-serif;letter-spacing:0px;word-spacing:0px;fill:#000000;fill-opacity:1;stroke:none;stroke-width:0.26458332"
       x="35.4034"
       y="129.26378"
       id="text1067-9-4-0"><tspan
         sodipodi:role="line"
         id="tspan1065-4-8-1"
         x="35.4034"
         y="129.26378"
         style="font-style:italic;font-variant:normal;font-weight:bold;font-stretch:normal;font-size:3.88055563px;font-family:sans-serif;-inkscape-font-specification:'sans-serif, Bold Italic';font-variant-ligatures:normal;font-variant-caps:normal;font-variant-numeric:normal;font-feature-settings:normal;text-align:start;writing-mode:lr-tb;text-anchor:start;fill:#0000d7;fill-opacity:1;stroke-width:0.26458332">(i-2, j)</tspan></text>
    <text
       xml:space="preserve"
       style="font-style:normal;font-weight:normal;font-size:10.58333302px;line-height:1.25;font-family:sans-serif;letter-spacing:0px;word-spacing:0px;fill:#000000;fill-opacity:1;stroke:none;stroke-width:0.26458332"
       x="35.4034"
       y="149.19109"
       id="text1067-9-7-5-0"><tspan
         sodipodi:role="line"
         id="tspan1065-4-0-8-1"
         x="35.4034"
         y="149.19109"
         style="font-style:italic;font-variant:normal;font-weight:bold;font-stretch:normal;font-size:3.88055563px;font-family:sans-serif;-inkscape-font-specification:'sans-serif, Bold Italic';font-variant-ligatures:normal;font-variant-caps:normal;font-variant-numeric:normal;font-feature-settings:normal;text-align:start;writing-mode:lr-tb;text-anchor:start;fill:#0000d7;fill-opacity:1;stroke-width:0.26458332">(i-2, j+1)</tspan></text>
    <text
       xml:space="preserve"
       style="font-style:normal;font-weight:normal;font-size:10.58333302px;line-height:1.25;font-family:sans-serif;letter-spacing:0px;word-spacing:0px;fill:#000000;fill-opacity:1;stroke:none;stroke-width:0.26458332"
       x="35.4034"
       y="89.16658"
       id="text1067-9-7-8-9-7-7-2-3"><tspan
         sodipodi:role="line"
         id="tspan1065-4-0-1-9-8-4-6-7"
         x="35.4034"
         y="89.16658"
         style="font-style:italic;font-variant:normal;font-weight:bold;font-stretch:normal;font-size:3.88055563px;font-family:sans-serif;-inkscape-font-specification:'sans-serif, Bold Italic';font-variant-ligatures:normal;font-variant-caps:normal;font-variant-numeric:normal;font-feature-settings:normal;text-align:start;writing-mode:lr-tb;text-anchor:start;fill:#0000d7;fill-opacity:1;stroke-width:0.26458332">(i-2, j-2)</tspan></text>
    <text
       xml:space="preserve"
       style="font-style:normal;font-weight:normal;font-size:10.58333302px;line-height:1.25;font-family:sans-serif;letter-spacing:0px;word-spacing:0px;fill:#000000;fill-opacity:1;stroke:none;stroke-width:0.26458332"
       x="35.4034"
       y="169.26811"
       id="text1067-9-7-9-0-7"><tspan
         sodipodi:role="line"
         id="tspan1065-4-0-0-6-2"
         x="35.4034"
         y="169.26811"
         style="font-style:italic;font-variant:normal;font-weight:bold;font-stretch:normal;font-size:3.88055563px;font-family:sans-serif;-inkscape-font-specification:'sans-serif, Bold Italic';font-variant-ligatures:normal;font-variant-caps:normal;font-variant-numeric:normal;font-feature-settings:normal;text-align:start;writing-mode:lr-tb;text-anchor:start;fill:#0000d7;fill-opacity:1;stroke-width:0.26458332">(i-2, j+2)</tspan></text>
    <text
       xml:space="preserve"
       style="font-style:normal;font-weight:normal;font-size:10.58333302px;line-height:1.25;font-family:sans-serif;letter-spacing:0px;word-spacing:0px;fill:#000000;fill-opacity:1;stroke:none;stroke-width:0.26458332"
       x="35.4034"
       y="109.10267"
       id="text1067-9-7-9-0-6-6"><tspan
         sodipodi:role="line"
         id="tspan1065-4-0-0-6-0-4"
         x="35.4034"
         y="109.10267"
         style="font-style:italic;font-variant:normal;font-weight:bold;font-stretch:normal;font-size:3.88055563px;font-family:sans-serif;-inkscape-font-specification:'sans-serif, Bold Italic';font-variant-ligatures:normal;font-variant-caps:normal;font-variant-numeric:normal;font-feature-settings:normal;text-align:start;writing-mode:lr-tb;text-anchor:start;fill:#0000d7;fill-opacity:1;stroke-width:0.26458332">(i-2, j-1)</tspan></text>
  </g>
</svg>
